{
  "total": 25,
  "totalPage": 5,
  "currentPage": 1,
  "rows": 5,
  "list": [
    {
      "eid": 40,
      "ename": "甄姬",
      "sex": "女",
      "tel": "010-88888881",
      "email": "aaadsfasf@aaa.aaa",
      "address": "北京昌平金燕龙102",
      "did": 3,
      "dname": "财务部",
      "photo": null
    },
    {
      "eid": 43,
      "ename": "马飞",
      "sex": "男",
      "tel": "13838383388",
      "email": "mf@qq.com",
      "address": "北京银燕龙",
      "did": 2,
      "dname": "研发部",
      "photo": null
    },
    {
      "eid": 45,
      "ename": "董卓",
      "sex": "男",
      "tel": "01001002312",
      "email": "dz@gmail.com",
      "address": "黑马金燕龙",
      "did": 1,
      "dname": "总裁办",
      "photo": "0fe135fae6cd7b8997e3f0940d2442a7d8330e04.gif"
    },
    {
      "eid": 46,
      "ename": "张大飞",
      "sex": "男",
      "tel": "13812345678",
      "email": "adsfasf@aaa.aaa",
      "address": "麦城",
      "did": 2,
      "dname": "研发部",
      "photo": "07.jpg"
    },
    {
      "eid": 47,
      "ename": "关羽",
      "sex": "男",
      "tel": "1654348589",
      "email": "guanyu@163.com",
      "address": "下邳",
      "did": 2,
      "dname": "研发部",
      "photo": "1.png"
    }
  ]
}